\relax 
\catcode `:\active 
\catcode `;\active 
\catcode `!\active 
\catcode `?\active 
\babel@aux{french}{}
\@writefile{toc}{\contentsline {section}{\numberline {1}Division des t\IeC {\^a}ches (temps)}{1}\protected@file@percent }
\@writefile{toc}{\contentsline {section}{\numberline {2}Client}{2}\protected@file@percent }
\@writefile{toc}{\contentsline {section}{\numberline {3}Serveur}{3}\protected@file@percent }
\@writefile{toc}{\contentsline {section}{\numberline {4}Sockets}{4}\protected@file@percent }
